test/tb.vcd
$date
	Mon Oct 20 15:37:42 2025
$end
$version
	Icarus Verilog
$end
$timescale
	1ps
$end
$scope module tb $end
$var wire 8 ! c [7:0] $end
$var wire 1 " enable $end
$var wire 8 # ui_in [7:0] $end
$var wire 8 $ uio_oe [7:0] $end
$var wire 8 % uo_out [7:0] $end
$var wire 8 & uio_out [7:0] $end
$var reg 1 ' clk $end
$var reg 1 ( ena $end
$var reg 1 ) rst_n $end
$var reg 8 * uio_in [7:0] $end
$scope module user_project $end
$var wire 1 ' clk $end
$var wire 1 ( ena $end
$var wire 1 ) rst_n $end
$var wire 8 + ui_in [7:0] $end
$var wire 8 , uio_in [7:0] $end
$var wire 8 - uio_oe [7:0] $end
$var wire 8 . uo_out [7:0] $end
$var wire 8 / uio_out [7:0] $end
$var wire 1 0 enable $end
$var wire 1 1 cout $end
$var wire 8 2 c [7:0] $end
$var wire 1 3 _unused $end
$scope module SUMADOR8BITS_Unit $end
$var wire 1 ' clk $end
$var wire 1 0 enable $end
$var wire 1 ) rst $end
$var reg 8 4 c [7:0] $end
$var reg 1 1 cout $end
$upscope $end
$upscope $end
$upscope $end
$enddefinitions $end
#0
$dumpvars
b0 4
03
b0 2
01
00
b0 /
b0 .
b10000000 -
bx ,
b0 +
bx *
0)
1(
1'
b0 &
b0 %
b10000000 $
b0 #
z"
b0 !
$end
#50000
0'
#100000
1)
1'
#150000
0'
#200000
1'
#200001
0)
#250001
0'
#300001
1'
#350001
0'
#400001
1)
1'
#450001
0'
#500001
10
b1 #
b1 +
1'
#550001
0'
#600001
b1 !
b1 %
b1 .
b1 2
b1 4
1'
#650001
0'
#700001
b10 !
b10 %
b10 .
b10 2
b10 4
1'
#750001
0'
#800001
b11 !
b11 %
b11 .
b11 2
b11 4
1'
#850001
0'
#900001
b100 !
b100 %
b100 .
b100 2
b100 4
1'
#950001
0'
#1000001
b101 !
b101 %
b101 .
b101 2
b101 4
1'
#1050001
0'
#1100001
b110 !
b110 %
b110 .
b110 2
b110 4
1'
#1150001
0'
#1200001
b111 !
b111 %
b111 .
b111 2
b111 4
1'
#1250001
0'
#1300001
b1000 !
b1000 %
b1000 .
b1000 2
b1000 4
1'
#1350001
0'
#1400001
b1001 !
b1001 %
b1001 .
b1001 2
b1001 4
1'
#1450001
0'
#1500001
b1010 !
b1010 %
b1010 .
b1010 2
b1010 4
1'
#1550001
0'
#1600001
b1011 !
b1011 %
b1011 .
b1011 2
b1011 4
1'
#1650001
0'
#1700001
b1100 !
b1100 %
b1100 .
b1100 2
b1100 4
1'
#1750001
0'
#1800001
b1101 !
b1101 %
b1101 .
b1101 2
b1101 4
1'
#1850001
0'
#1900001
b1110 !
b1110 %
b1110 .
b1110 2
b1110 4
1'
#1950001
0'
#2000001
b1111 !
b1111 %
b1111 .
b1111 2
b1111 4
1'
#2050001
0'
#2100001
b10000 !
b10000 %
b10000 .
b10000 2
b10000 4
1'
#2150001
0'
#2200001
b10001 !
b10001 %
b10001 .
b10001 2
b10001 4
1'
#2250001
0'
#2300001
b10010 !
b10010 %
b10010 .
b10010 2
b10010 4
1'
#2350001
0'
#2400001
b10011 !
b10011 %
b10011 .
b10011 2
b10011 4
1'
#2450001
0'
#2500001
b10100 !
b10100 %
b10100 .
b10100 2
b10100 4
1'
#2550001
0'
#2600001
b10101 !
b10101 %
b10101 .
b10101 2
b10101 4
1'
#2650001
0'
#2700001
b10110 !
b10110 %
b10110 .
b10110 2
b10110 4
1'
#2750001
0'
#2800001
b10111 !
b10111 %
b10111 .
b10111 2
b10111 4
1'
#2850001
0'
#2900001
b11000 !
b11000 %
b11000 .
b11000 2
b11000 4
1'
#2950001
0'
#3000001
b11001 !
b11001 %
b11001 .
b11001 2
b11001 4
1'
#3050001
0'
#3100001
b11010 !
b11010 %
b11010 .
b11010 2
b11010 4
1'
#3150001
0'
#3200001
b11011 !
b11011 %
b11011 .
b11011 2
b11011 4
1'
#3250001
0'
#3300001
b11100 !
b11100 %
b11100 .
b11100 2
b11100 4
1'
#3350001
0'
#3400001
b11101 !
b11101 %
b11101 .
b11101 2
b11101 4
1'
#3450001
0'
#3500001
b11110 !
b11110 %
b11110 .
b11110 2
b11110 4
1'
#3550001
0'
#3600001
b11111 !
b11111 %
b11111 .
b11111 2
b11111 4
1'
#3650001
0'
#3700001
b100000 !
b100000 %
b100000 .
b100000 2
b100000 4
1'
#3750001
0'
#3800001
b100001 !
b100001 %
b100001 .
b100001 2
b100001 4
1'
#3850001
0'
#3900001
b100010 !
b100010 %
b100010 .
b100010 2
b100010 4
1'
#3950001
0'
#4000001
b100011 !
b100011 %
b100011 .
b100011 2
b100011 4
1'
#4050001
0'
#4100001
b100100 !
b100100 %
b100100 .
b100100 2
b100100 4
1'
#4150001
0'
#4200001
b100101 !
b100101 %
b100101 .
b100101 2
b100101 4
1'
#4250001
0'
#4300001
b100110 !
b100110 %
b100110 .
b100110 2
b100110 4
1'
#4350001
0'
#4400001
b100111 !
b100111 %
b100111 .
b100111 2
b100111 4
1'
#4450001
0'
#4500001
b101000 !
b101000 %
b101000 .
b101000 2
b101000 4
1'
#4550001
0'
#4600001
b101001 !
b101001 %
b101001 .
b101001 2
b101001 4
1'
#4650001
0'
#4700001
b101010 !
b101010 %
b101010 .
b101010 2
b101010 4
1'
#4750001
0'
#4800001
b101011 !
b101011 %
b101011 .
b101011 2
b101011 4
1'
#4850001
0'
#4900001
b101100 !
b101100 %
b101100 .
b101100 2
b101100 4
1'
#4950001
0'
#5000001
b101101 !
b101101 %
b101101 .
b101101 2
b101101 4
1'
#5050001
0'
#5100001
b101110 !
b101110 %
b101110 .
b101110 2
b101110 4
1'
#5150001
0'
#5200001
b101111 !
b101111 %
b101111 .
b101111 2
b101111 4
1'
#5250001
0'
#5300001
b110000 !
b110000 %
b110000 .
b110000 2
b110000 4
1'
#5350001
0'
#5400001
b110001 !
b110001 %
b110001 .
b110001 2
b110001 4
1'
#5450001
0'
#5500001
b110010 !
b110010 %
b110010 .
b110010 2
b110010 4
1'
#5550001
0'
#5600001
b110011 !
b110011 %
b110011 .
b110011 2
b110011 4
1'
#5650001
0'
#5700001
b110100 !
b110100 %
b110100 .
b110100 2
b110100 4
1'
#5750001
0'
#5800001
b110101 !
b110101 %
b110101 .
b110101 2
b110101 4
1'
#5850001
0'
#5900001
b110110 !
b110110 %
b110110 .
b110110 2
b110110 4
1'
#5950001
0'
#6000001
b110111 !
b110111 %
b110111 .
b110111 2
b110111 4
1'
#6050001
0'
#6100001
b111000 !
b111000 %
b111000 .
b111000 2
b111000 4
1'
#6150001
0'
#6200001
b111001 !
b111001 %
b111001 .
b111001 2
b111001 4
1'
#6250001
0'
#6300001
b111010 !
b111010 %
b111010 .
b111010 2
b111010 4
1'
#6350001
0'
#6400001
b111011 !
b111011 %
b111011 .
b111011 2
b111011 4
1'
#6450001
0'
#6500001
b111100 !
b111100 %
b111100 .
b111100 2
b111100 4
1'
#6550001
0'
#6600001
b111101 !
b111101 %
b111101 .
b111101 2
b111101 4
1'
#6650001
0'
#6700001
b111110 !
b111110 %
b111110 .
b111110 2
b111110 4
1'
#6750001
0'
#6800001
b111111 !
b111111 %
b111111 .
b111111 2
b111111 4
1'
#6850001
0'
#6900001
b1000000 !
b1000000 %
b1000000 .
b1000000 2
b1000000 4
1'
#6950001
0'
#7000001
b1000001 !
b1000001 %
b1000001 .
b1000001 2
b1000001 4
1'
#7050001
0'
#7100001
b1000010 !
b1000010 %
b1000010 .
b1000010 2
b1000010 4
1'
#7150001
0'
#7200001
b1000011 !
b1000011 %
b1000011 .
b1000011 2
b1000011 4
1'
#7250001
0'
#7300001
b1000100 !
b1000100 %
b1000100 .
b1000100 2
b1000100 4
1'
#7350001
0'
#7400001
b1000101 !
b1000101 %
b1000101 .
b1000101 2
b1000101 4
1'
#7450001
0'
#7500001
b1000110 !
b1000110 %
b1000110 .
b1000110 2
b1000110 4
1'
#7550001
0'
#7600001
b1000111 !
b1000111 %
b1000111 .
b1000111 2
b1000111 4
1'
#7650001
0'
#7700001
b1001000 !
b1001000 %
b1001000 .
b1001000 2
b1001000 4
1'
#7750001
0'
#7800001
b1001001 !
b1001001 %
b1001001 .
b1001001 2
b1001001 4
1'
#7850001
0'
#7900001
b1001010 !
b1001010 %
b1001010 .
b1001010 2
b1001010 4
1'
#7950001
0'
#8000001
b1001011 !
b1001011 %
b1001011 .
b1001011 2
b1001011 4
1'
#8050001
0'
#8100001
b1001100 !
b1001100 %
b1001100 .
b1001100 2
b1001100 4
1'
#8150001
0'
#8200001
b1001101 !
b1001101 %
b1001101 .
b1001101 2
b1001101 4
1'
#8250001
0'
#8300001
b1001110 !
b1001110 %
b1001110 .
b1001110 2
b1001110 4
1'
#8350001
0'
#8400001
b1001111 !
b1001111 %
b1001111 .
b1001111 2
b1001111 4
1'
#8450001
0'
#8500001
b1010000 !
b1010000 %
b1010000 .
b1010000 2
b1010000 4
1'
#8550001
0'
#8600001
b1010001 !
b1010001 %
b1010001 .
b1010001 2
b1010001 4
1'
#8650001
0'
#8700001
b1010010 !
b1010010 %
b1010010 .
b1010010 2
b1010010 4
1'
#8750001
0'
#8800001
b1010011 !
b1010011 %
b1010011 .
b1010011 2
b1010011 4
1'
#8850001
0'
#8900001
b1010100 !
b1010100 %
b1010100 .
b1010100 2
b1010100 4
1'
#8950001
0'
#9000001
b1010101 !
b1010101 %
b1010101 .
b1010101 2
b1010101 4
1'
#9050001
0'
#9100001
b1010110 !
b1010110 %
b1010110 .
b1010110 2
b1010110 4
1'
#9150001
0'
#9200001
b1010111 !
b1010111 %
b1010111 .
b1010111 2
b1010111 4
1'
#9250001
0'
#9300001
b1011000 !
b1011000 %
b1011000 .
b1011000 2
b1011000 4
1'
#9350001
0'
#9400001
b1011001 !
b1011001 %
b1011001 .
b1011001 2
b1011001 4
1'
#9450001
0'
#9500001
b1011010 !
b1011010 %
b1011010 .
b1011010 2
b1011010 4
1'
#9550001
0'
#9600001
b1011011 !
b1011011 %
b1011011 .
b1011011 2
b1011011 4
1'
#9650001
0'
#9700001
b1011100 !
b1011100 %
b1011100 .
b1011100 2
b1011100 4
1'
#9750001
0'
#9800001
b1011101 !
b1011101 %
b1011101 .
b1011101 2
b1011101 4
1'
#9850001
0'
#9900001
b1011110 !
b1011110 %
b1011110 .
b1011110 2
b1011110 4
1'
#9950001
0'
#10000001
b1011111 !
b1011111 %
b1011111 .
b1011111 2
b1011111 4
1'
#10050001
0'
#10100001
b1100000 !
b1100000 %
b1100000 .
b1100000 2
b1100000 4
1'
#10150001
0'
#10200001
b1100001 !
b1100001 %
b1100001 .
b1100001 2
b1100001 4
1'
#10250001
0'
#10300001
b1100010 !
b1100010 %
b1100010 .
b1100010 2
b1100010 4
1'
#10350001
0'
#10400001
b1100011 !
b1100011 %
b1100011 .
b1100011 2
b1100011 4
1'
#10450001
0'
#10500001
b1100100 !
b1100100 %
b1100100 .
b1100100 2
b1100100 4
1'
#10550001
0'
#10600001
b1100101 !
b1100101 %
b1100101 .
b1100101 2
b1100101 4
1'
#10650001
0'
#10700001
b1100110 !
b1100110 %
b1100110 .
b1100110 2
b1100110 4
1'
#10750001
0'
#10800001
b1100111 !
b1100111 %
b1100111 .
b1100111 2
b1100111 4
1'
#10850001
0'
#10900001
b1101000 !
b1101000 %
b1101000 .
b1101000 2
b1101000 4
1'
#10950001
0'
#11000001
b1101001 !
b1101001 %
b1101001 .
b1101001 2
b1101001 4
1'
#11050001
0'
#11100001
b1101010 !
b1101010 %
b1101010 .
b1101010 2
b1101010 4
1'
#11150001
0'
#11200001
b1101011 !
b1101011 %
b1101011 .
b1101011 2
b1101011 4
1'
#11250001
0'
#11300001
b1101100 !
b1101100 %
b1101100 .
b1101100 2
b1101100 4
1'
#11350001
0'
#11400001
b1101101 !
b1101101 %
b1101101 .
b1101101 2
b1101101 4
1'
#11450001
0'
#11500001
b1101110 !
b1101110 %
b1101110 .
b1101110 2
b1101110 4
1'
#11550001
0'
#11600001
b1101111 !
b1101111 %
b1101111 .
b1101111 2
b1101111 4
1'
#11650001
0'
#11700001
b1110000 !
b1110000 %
b1110000 .
b1110000 2
b1110000 4
1'
#11750001
0'
#11800001
b1110001 !
b1110001 %
b1110001 .
b1110001 2
b1110001 4
1'
#11850001
0'
#11900001
b1110010 !
b1110010 %
b1110010 .
b1110010 2
b1110010 4
1'
#11950001
0'
#12000001
b1110011 !
b1110011 %
b1110011 .
b1110011 2
b1110011 4
1'
#12050001
0'
#12100001
b1110100 !
b1110100 %
b1110100 .
b1110100 2
b1110100 4
1'
#12150001
0'
#12200001
b1110101 !
b1110101 %
b1110101 .
b1110101 2
b1110101 4
1'
#12250001
0'
#12300001
b1110110 !
b1110110 %
b1110110 .
b1110110 2
b1110110 4
1'
#12350001
0'
#12400001
b1110111 !
b1110111 %
b1110111 .
b1110111 2
b1110111 4
1'
#12450001
0'
#12500001
b1111000 !
b1111000 %
b1111000 .
b1111000 2
b1111000 4
1'
#12550001
0'
#12600001
b1111001 !
b1111001 %
b1111001 .
b1111001 2
b1111001 4
1'
#12650001
0'
#12700001
b1111010 !
b1111010 %
b1111010 .
b1111010 2
b1111010 4
1'
#12750001
0'
#12800001
b1111011 !
b1111011 %
b1111011 .
b1111011 2
b1111011 4
1'
#12850001
0'
#12900001
b1111100 !
b1111100 %
b1111100 .
b1111100 2
b1111100 4
1'
#12950001
0'
#13000001
b1111101 !
b1111101 %
b1111101 .
b1111101 2
b1111101 4
1'
#13050001
0'
#13100001
b1111110 !
b1111110 %
b1111110 .
b1111110 2
b1111110 4
1'
#13150001
0'
#13200001
b1111111 !
b1111111 %
b1111111 .
b1111111 2
b1111111 4
1'
#13250001
0'
#13300001
b10000000 !
b10000000 %
b10000000 .
b10000000 2
b10000000 4
1'
#13350001
0'
#13400001
b10000001 !
b10000001 %
b10000001 .
b10000001 2
b10000001 4
1'
#13450001
0'
#13500001
b10000010 !
b10000010 %
b10000010 .
b10000010 2
b10000010 4
1'
#13550001
0'
#13600001
b10000011 !
b10000011 %
b10000011 .
b10000011 2
b10000011 4
1'
#13650001
0'
#13700001
b10000100 !
b10000100 %
b10000100 .
b10000100 2
b10000100 4
1'
#13750001
0'
#13800001
b10000101 !
b10000101 %
b10000101 .
b10000101 2
b10000101 4
1'
#13850001
0'
#13900001
b10000110 !
b10000110 %
b10000110 .
b10000110 2
b10000110 4
1'
#13950001
0'
#14000001
b10000111 !
b10000111 %
b10000111 .
b10000111 2
b10000111 4
1'
#14050001
0'
#14100001
b10001000 !
b10001000 %
b10001000 .
b10001000 2
b10001000 4
1'
#14150001
0'
#14200001
b10001001 !
b10001001 %
b10001001 .
b10001001 2
b10001001 4
1'
#14250001
0'
#14300001
b10001010 !
b10001010 %
b10001010 .
b10001010 2
b10001010 4
1'
#14350001
0'
#14400001
b10001011 !
b10001011 %
b10001011 .
b10001011 2
b10001011 4
1'
#14450001
0'
#14500001
b10001100 !
b10001100 %
b10001100 .
b10001100 2
b10001100 4
1'
#14550001
0'
#14600001
b10001101 !
b10001101 %
b10001101 .
b10001101 2
b10001101 4
1'
#14650001
0'
#14700001
b10001110 !
b10001110 %
b10001110 .
b10001110 2
b10001110 4
1'
#14750001
0'
#14800001
b10001111 !
b10001111 %
b10001111 .
b10001111 2
b10001111 4
1'
#14850001
0'
#14900001
b10010000 !
b10010000 %
b10010000 .
b10010000 2
b10010000 4
1'
#14950001
0'
#15000001
b10010001 !
b10010001 %
b10010001 .
b10010001 2
b10010001 4
1'
#15050001
0'
#15100001
b10010010 !
b10010010 %
b10010010 .
b10010010 2
b10010010 4
1'
#15150001
0'
#15200001
b10010011 !
b10010011 %
b10010011 .
b10010011 2
b10010011 4
1'
#15250001
0'
#15300001
b10010100 !
b10010100 %
b10010100 .
b10010100 2
b10010100 4
1'
#15350001
0'
#15400001
b10010101 !
b10010101 %
b10010101 .
b10010101 2
b10010101 4
1'
#15450001
0'
#15500001
b10010110 !
b10010110 %
b10010110 .
b10010110 2
b10010110 4
1'
#15550001
0'
#15600001
b10010111 !
b10010111 %
b10010111 .
b10010111 2
b10010111 4
1'
#15650001
0'
#15700001
b10011000 !
b10011000 %
b10011000 .
b10011000 2
b10011000 4
1'
#15750001
0'
#15800001
b10011001 !
b10011001 %
b10011001 .
b10011001 2
b10011001 4
1'
#15850001
0'
#15900001
b10011010 !
b10011010 %
b10011010 .
b10011010 2
b10011010 4
1'
#15950001
0'
#16000001
b10011011 !
b10011011 %
b10011011 .
b10011011 2
b10011011 4
1'
#16050001
0'
#16100001
b10011100 !
b10011100 %
b10011100 .
b10011100 2
b10011100 4
1'
#16150001
0'
#16200001
b10011101 !
b10011101 %
b10011101 .
b10011101 2
b10011101 4
1'
#16250001
0'
#16300001
b10011110 !
b10011110 %
b10011110 .
b10011110 2
b10011110 4
1'
#16350001
0'
#16400001
b10011111 !
b10011111 %
b10011111 .
b10011111 2
b10011111 4
1'
#16450001
0'
#16500001
b10100000 !
b10100000 %
b10100000 .
b10100000 2
b10100000 4
1'
#16550001
0'
#16600001
b10100001 !
b10100001 %
b10100001 .
b10100001 2
b10100001 4
1'
#16650001
0'
#16700001
b10100010 !
b10100010 %
b10100010 .
b10100010 2
b10100010 4
1'
#16750001
0'
#16800001
b10100011 !
b10100011 %
b10100011 .
b10100011 2
b10100011 4
1'
#16850001
0'
#16900001
b10100100 !
b10100100 %
b10100100 .
b10100100 2
b10100100 4
1'
#16950001
0'
#17000001
b10100101 !
b10100101 %
b10100101 .
b10100101 2
b10100101 4
1'
#17050001
0'
#17100001
b10100110 !
b10100110 %
b10100110 .
b10100110 2
b10100110 4
1'
#17150001
0'
#17200001
b10100111 !
b10100111 %
b10100111 .
b10100111 2
b10100111 4
1'
#17250001
0'
#17300001
b10101000 !
b10101000 %
b10101000 .
b10101000 2
b10101000 4
1'
#17350001
0'
#17400001
b10101001 !
b10101001 %
b10101001 .
b10101001 2
b10101001 4
1'
#17450001
0'
#17500001
b10101010 !
b10101010 %
b10101010 .
b10101010 2
b10101010 4
1'
#17550001
0'
#17600001
b10101011 !
b10101011 %
b10101011 .
b10101011 2
b10101011 4
1'
#17650001
0'
#17700001
b10101100 !
b10101100 %
b10101100 .
b10101100 2
b10101100 4
1'
#17750001
0'
#17800001
b10101101 !
b10101101 %
b10101101 .
b10101101 2
b10101101 4
1'
#17850001
0'
#17900001
b10101110 !
b10101110 %
b10101110 .
b10101110 2
b10101110 4
1'
#17950001
0'
#18000001
b10101111 !
b10101111 %
b10101111 .
b10101111 2
b10101111 4
1'
#18050001
0'
#18100001
b10110000 !
b10110000 %
b10110000 .
b10110000 2
b10110000 4
1'
#18150001
0'
#18200001
b10110001 !
b10110001 %
b10110001 .
b10110001 2
b10110001 4
1'
#18250001
0'
#18300001
b10110010 !
b10110010 %
b10110010 .
b10110010 2
b10110010 4
1'
#18350001
0'
#18400001
b10110011 !
b10110011 %
b10110011 .
b10110011 2
b10110011 4
1'
#18450001
0'
#18500001
b10110100 !
b10110100 %
b10110100 .
b10110100 2
b10110100 4
1'
#18550001
0'
#18600001
b10110101 !
b10110101 %
b10110101 .
b10110101 2
b10110101 4
1'
#18650001
0'
#18700001
b10110110 !
b10110110 %
b10110110 .
b10110110 2
b10110110 4
1'
#18750001
0'
#18800001
b10110111 !
b10110111 %
b10110111 .
b10110111 2
b10110111 4
1'
#18850001
0'
#18900001
b10111000 !
b10111000 %
b10111000 .
b10111000 2
b10111000 4
1'
#18950001
0'
#19000001
b10111001 !
b10111001 %
b10111001 .
b10111001 2
b10111001 4
1'
#19050001
0'
#19100001
b10111010 !
b10111010 %
b10111010 .
b10111010 2
b10111010 4
1'
#19150001
0'
#19200001
b10111011 !
b10111011 %
b10111011 .
b10111011 2
b10111011 4
1'
#19250001
0'
#19300001
b10111100 !
b10111100 %
b10111100 .
b10111100 2
b10111100 4
1'
#19350001
0'
#19400001
b10111101 !
b10111101 %
b10111101 .
b10111101 2
b10111101 4
1'
#19450001
0'
#19500001
b10111110 !
b10111110 %
b10111110 .
b10111110 2
b10111110 4
1'
#19550001
0'
#19600001
b10111111 !
b10111111 %
b10111111 .
b10111111 2
b10111111 4
1'
#19650001
0'
#19700001
b11000000 !
b11000000 %
b11000000 .
b11000000 2
b11000000 4
1'
#19750001
0'
#19800001
b11000001 !
b11000001 %
b11000001 .
b11000001 2
b11000001 4
1'
#19850001
0'
#19900001
b11000010 !
b11000010 %
b11000010 .
b11000010 2
b11000010 4
1'
#19950001
0'
#20000001
b11000011 !
b11000011 %
b11000011 .
b11000011 2
b11000011 4
1'
#20050001
0'
#20100001
b11000100 !
b11000100 %
b11000100 .
b11000100 2
b11000100 4
1'
#20150001
0'
#20200001
b11000101 !
b11000101 %
b11000101 .
b11000101 2
b11000101 4
1'
#20250001
0'
#20300001
b11000110 !
b11000110 %
b11000110 .
b11000110 2
b11000110 4
1'
#20350001
0'
#20400001
b11000111 !
b11000111 %
b11000111 .
b11000111 2
b11000111 4
1'
#20450001
0'
#20500001
b11001000 !
b11001000 %
b11001000 .
b11001000 2
b11001000 4
1'
#20550001
0'
#20600001
b11001001 !
b11001001 %
b11001001 .
b11001001 2
b11001001 4
1'
#20650001
0'
#20700001
b11001010 !
b11001010 %
b11001010 .
b11001010 2
b11001010 4
1'
#20750001
0'
#20800001
b11001011 !
b11001011 %
b11001011 .
b11001011 2
b11001011 4
1'
#20850001
0'
#20900001
b11001100 !
b11001100 %
b11001100 .
b11001100 2
b11001100 4
1'
#20950001
0'
#21000001
b11001101 !
b11001101 %
b11001101 .
b11001101 2
b11001101 4
1'
#21050001
0'
#21100001
b11001110 !
b11001110 %
b11001110 .
b11001110 2
b11001110 4
1'
#21150001
0'
#21200001
b11001111 !
b11001111 %
b11001111 .
b11001111 2
b11001111 4
1'
#21250001
0'
#21300001
b11010000 !
b11010000 %
b11010000 .
b11010000 2
b11010000 4
1'
#21350001
0'
#21400001
b11010001 !
b11010001 %
b11010001 .
b11010001 2
b11010001 4
1'
#21450001
0'
#21500001
b11010010 !
b11010010 %
b11010010 .
b11010010 2
b11010010 4
1'
#21550001
0'
#21600001
b11010011 !
b11010011 %
b11010011 .
b11010011 2
b11010011 4
1'
#21650001
0'
#21700001
b11010100 !
b11010100 %
b11010100 .
b11010100 2
b11010100 4
1'
#21750001
0'
#21800001
b11010101 !
b11010101 %
b11010101 .
b11010101 2
b11010101 4
1'
#21850001
0'
#21900001
b11010110 !
b11010110 %
b11010110 .
b11010110 2
b11010110 4
1'
#21950001
0'
#22000001
b11010111 !
b11010111 %
b11010111 .
b11010111 2
b11010111 4
1'
#22050001
0'
#22100001
b11011000 !
b11011000 %
b11011000 .
b11011000 2
b11011000 4
1'
#22150001
0'
#22200001
b11011001 !
b11011001 %
b11011001 .
b11011001 2
b11011001 4
1'
#22250001
0'
#22300001
b11011010 !
b11011010 %
b11011010 .
b11011010 2
b11011010 4
1'
#22350001
0'
#22400001
b11011011 !
b11011011 %
b11011011 .
b11011011 2
b11011011 4
1'
#22450001
0'
#22500001
b11011100 !
b11011100 %
b11011100 .
b11011100 2
b11011100 4
1'
#22550001
0'
#22600001
b11011101 !
b11011101 %
b11011101 .
b11011101 2
b11011101 4
1'
#22650001
0'
#22700001
b11011110 !
b11011110 %
b11011110 .
b11011110 2
b11011110 4
1'
#22750001
0'
#22800001
b11011111 !
b11011111 %
b11011111 .
b11011111 2
b11011111 4
1'
#22850001
0'
#22900001
b11100000 !
b11100000 %
b11100000 .
b11100000 2
b11100000 4
1'
#22950001
0'
#23000001
b11100001 !
b11100001 %
b11100001 .
b11100001 2
b11100001 4
1'
#23050001
0'
#23100001
b11100010 !
b11100010 %
b11100010 .
b11100010 2
b11100010 4
1'
#23150001
0'
#23200001
b11100011 !
b11100011 %
b11100011 .
b11100011 2
b11100011 4
1'
#23250001
0'
#23300001
b11100100 !
b11100100 %
b11100100 .
b11100100 2
b11100100 4
1'
#23350001
0'
#23400001
b11100101 !
b11100101 %
b11100101 .
b11100101 2
b11100101 4
1'
#23450001
0'
#23500001
b11100110 !
b11100110 %
b11100110 .
b11100110 2
b11100110 4
1'
#23550001
0'
#23600001
b11100111 !
b11100111 %
b11100111 .
b11100111 2
b11100111 4
1'
#23650001
0'
#23700001
b11101000 !
b11101000 %
b11101000 .
b11101000 2
b11101000 4
1'
#23750001
0'
#23800001
b11101001 !
b11101001 %
b11101001 .
b11101001 2
b11101001 4
1'
#23850001
0'
#23900001
b11101010 !
b11101010 %
b11101010 .
b11101010 2
b11101010 4
1'
#23950001
0'
#24000001
b11101011 !
b11101011 %
b11101011 .
b11101011 2
b11101011 4
1'
#24050001
0'
#24100001
b11101100 !
b11101100 %
b11101100 .
b11101100 2
b11101100 4
1'
#24150001
0'
#24200001
b11101101 !
b11101101 %
b11101101 .
b11101101 2
b11101101 4
1'
#24250001
0'
#24300001
b11101110 !
b11101110 %
b11101110 .
b11101110 2
b11101110 4
1'
#24350001
0'
#24400001
b11101111 !
b11101111 %
b11101111 .
b11101111 2
b11101111 4
1'
#24450001
0'
#24500001
b11110000 !
b11110000 %
b11110000 .
b11110000 2
b11110000 4
1'
#24550001
0'
#24600001
b11110001 !
b11110001 %
b11110001 .
b11110001 2
b11110001 4
1'
#24650001
0'
#24700001
b11110010 !
b11110010 %
b11110010 .
b11110010 2
b11110010 4
1'
#24750001
0'
#24800001
b11110011 !
b11110011 %
b11110011 .
b11110011 2
b11110011 4
1'
#24850001
0'
#24900001
b11110100 !
b11110100 %
b11110100 .
b11110100 2
b11110100 4
1'
#24950001
0'
#25000001
b11110101 !
b11110101 %
b11110101 .
b11110101 2
b11110101 4
1'
#25050001
0'
#25100001
b11110110 !
b11110110 %
b11110110 .
b11110110 2
b11110110 4
1'
#25150001
0'
#25200001
b11110111 !
b11110111 %
b11110111 .
b11110111 2
b11110111 4
1'
#25250001
0'
#25300001
b11111000 !
b11111000 %
b11111000 .
b11111000 2
b11111000 4
1'
#25350001
0'
#25400001
b11111001 !
b11111001 %
b11111001 .
b11111001 2
b11111001 4
1'
#25450001
0'
#25500001
b11111010 !
b11111010 %
b11111010 .
b11111010 2
b11111010 4
1'
#25550001
0'
#25600001
b11111011 !
b11111011 %
b11111011 .
b11111011 2
b11111011 4
1'
#25650001
0'
#25700001
b11111100 !
b11111100 %
b11111100 .
b11111100 2
b11111100 4
1'
#25750001
0'
#25800001
b11111101 !
b11111101 %
b11111101 .
b11111101 2
b11111101 4
1'
#25850001
0'
#25900001
b11111110 !
b11111110 %
b11111110 .
b11111110 2
b11111110 4
1'
#25950001
0'
#26000001
b11111111 !
b11111111 %
b11111111 .
b11111111 2
b11111111 4
1'
#26050001
0'
#26100001
b10000000 &
b10000000 /
11
b0 !
b0 %
b0 .
b0 2
b0 4
1'
#26150001
0'
#26200001
b1 !
b1 %
b1 .
b1 2
b1 4
1'
#26250001
0'
#26300001
b10 !
b10 %
b10 .
b10 2
b10 4
1'
#26350001
0'
#26400001
b11 !
b11 %
b11 .
b11 2
b11 4
1'
#26450001
0'
#26500001
b100 !
b100 %
b100 .
b100 2
b100 4
1'
#26500002
00
b0 &
b0 /
01
b0 !
b0 %
b0 .
b0 2
b0 4
b0 #
b0 +
0)
#26550002
0'
#26600002
1'
#26650002
0'
#26700002
1)
1'
#26750002
0'
#26800002
10
b1 #
b1 +
1'
#26850002
0'
#26900002
b1 !
b1 %
b1 .
b1 2
b1 4
1'
#26950002
0'
#27000002
b10 !
b10 %
b10 .
b10 2
b10 4
1'
#27050002
0'
#27100002
b11 !
b11 %
b11 .
b11 2
b11 4
1'
#27150002
0'
#27200002
b100 !
b100 %
b100 .
b100 2
b100 4
1'
#27250002
0'
#27300002
b101 !
b101 %
b101 .
b101 2
b101 4
1'
#27300003
00
b0 !
b0 %
b0 .
b0 2
b0 4
b0 #
b0 +
0)
#27350003
0'
#27400003
1'
#27450003
0'
#27500003
1'
#27550003
0'
#27600003
1)
1'
#27650003
0'
#27700003
10
b1 #
b1 +
1'
#27750003
0'
#27800003
b1 !
b1 %
b1 .
b1 2
b1 4
1'
#27850003
0'
#27900003
b10 !
b10 %
b10 .
b10 2
b10 4
1'
#27950003
0'
#28000003
b11 !
b11 %
b11 .
b11 2
b11 4
1'
#28050003
0'
#28100003
00
b0 #
b0 +
b100 !
b100 %
b100 .
b100 2
b100 4
1'
